{
  "shell_port": 33277,
  "iopub_port": 58973,
  "stdin_port": 52811,
  "control_port": 49763,
  "hb_port": 53521,
  "ip": "127.0.0.1",
  "key": "66f75622-1b5cfb133e672e9e43989802",
  "transport": "tcp",
  "signature_scheme": "hmac-sha256",
  "kernel_name": ""
}